{
  "easyAdd_1": {
    "chapter_1": {
      "lesson_1": [
        {
          "a": 1,
          "b": 1
        },
        {
          "a": 2,
          "b": 1
        },
        {
          "a": 3,
          "b": 1
        },
        {
          "a": 4,
          "b": 1
        },
        {
          "a": 5,
          "b": 1
        }
      ],
      "lesson_2": [
        {
          "a": 2,
          "b": 1
        },
        {
          "a": 3,
          "b": 1
        },
        {
          "a": 4,
          "b": 1
        },
        {
          "a": 5,
          "b": 1
        },
        {
          "a": 6,
          "b": 1
        }
      ],
      "lesson_3": [
        {
          "a": 3,
          "b": 1
        },
        {
          "a": 4,
          "b": 1
        },
        {
          "a": 5,
          "b": 1
        },
        {
          "a": 6,
          "b": 1
        },
        {
          "a": 7,
          "b": 1
        }
      ],
      "lesson_4": [
        {
          "a": 4,
          "b": 1
        },
        {
          "a": 5,
          "b": 1
        },
        {
          "a": 6,
          "b": 1
        },
        {
          "a": 7,
          "b": 1
        },
        {
          "a": 8,
          "b": 1
        }
      ],
      "lesson_5": [
        {
          "a": 5,
          "b": 1
        },
        {
          "a": 6,
          "b": 1
        },
        {
          "a": 7,
          "addend_2": 1
        },
        {
          "a": 8,
          "b": 1
        },
        {
          "a": 9,
          "b": 1
        }
      ],
      "lesson_6": [
        {
          "a": 6,
          "b": 1
        },
        {
          "a": 7,
          "b": 1
        },
        {
          "a": 8,
          "b": 1
        },
        {
          "a": 9,
          "b": 1
        },
        {
          "a": 10,
          "b": 1
        }
      ]
    },
    "chapter_2": {
      "lesson_1": [
        {
          "a": 11,
          "b": 1
        },
        {
          "a": 12,
          "b": 1
        },
        {
          "a": 13,
          "b": 1
        },
        {
          "a": 14,
          "b": 1
        },
        {
          "a": 15,
          "b": 1
        }
      ],
      "lesson_2": [
        {
          "a": 12,
          "b": 1
        },
        {
          "a": 13,
          "b": 1
        },
        {
          "a": 14,
          "b": 1
        },
        {
          "a": 15,
          "b": 1
        },
        {
          "a": 16,
          "b": 1
        }
      ],
      "lesson_3": [
        {
          "a": 13,
          "b": 1
        },
        {
          "a": 14,
          "b": 1
        },
        {
          "a": 15,
          "b": 1
        },
        {
          "a": 16,
          "b": 1
        },
        {
          "a": 17,
          "b": 1
        }
      ],
      "lesson_4": [
        {
          "a": 14,
          "b": 1
        },
        {
          "a": 15,
          "b": 1
        },
        {
          "a": 16,
          "b": 1
        },
        {
          "a": 17,
          "b": 1
        },
        {
          "a": 18,
          "b": 1
        }
      ],
      "lesson_5": [
        {
          "a": 15,
          "b": 1
        },
        {
          "a": 16,
          "b": 1
        },
        {
          "a": 17,
          "b": 1
        },
        {
          "a": 18,
          "b": 1
        },
        {
          "a": 19,
          "b": 1
        }
      ],
      "lesson_6": [
        {
          "a": 16,
          "b": 1
        },
        {
          "a": 17,
          "b": 1
        },
        {
          "a": 18,
          "b": 1
        },
        {
          "a": 19,
          "b": 1
        },
        {
          "a": 20,
          "b": 1
        }
      ]
    },
    "chapter_3": {
      "lesson_1": [
        {
          "a": 1,
          "b": 2
        },
        {
          "a": 2,
          "b": 2
        },
        {
          "a": 3,
          "b": 2
        },
        {
          "a": 4,
          "b": 2
        },
        {
          "a": 5,
          "b": 2
        }
      ],
      "lesson_2": [
        {
          "a": 2,
          "b": 2
        },
        {
          "a": 3,
          "b": 2
        },
        {
          "a": 4,
          "b": 2
        },
        {
          "a": 5,
          "b": 2
        },
        {
          "a": 6,
          "b": 2
        }
      ],
      "lesson_3": [
        {
          "a": 3,
          "b": 2
        },
        {
          "a": 4,
          "b": 2
        },
        {
          "a": 5,
          "b": 2
        },
        {
          "a": 6,
          "b": 2
        },
        {
          "a": 7,
          "b": 2
        }
      ],
      "lesson_4": [
        {
          "a": 4,
          "b": 2
        },
        {
          "a": 5,
          "b": 2
        },
        {
          "a": 6,
          "b": 2
        },
        {
          "a": 7,
          "b": 2
        },
        {
          "a": 8,
          "b": 2
        }
      ],
      "lesson_5": [
        {
          "a": 5,
          "b": 2
        },
        {
          "a": 6,
          "b": 2
        },
        {
          "a": 7,
          "b": 2
        },
        {
          "a": 8,
          "b": 2
        },
        {
          "a": 9,
          "b": 2
        }
      ],
      "lesson_6": [
        {
          "a": 6,
          "b": 2
        },
        {
          "a": 7,
          "b": 2
        },
        {
          "a": 8,
          "b": 2
        },
        {
          "a": 9,
          "b": 2
        },
        {
          "a": 10,
          "b": 2
        }
      ]
    },
    "chapter_4": {
      "lesson_1": [
        {
          "a": 11,
          "b": 2
        },
        {
          "a": 12,
          "b": 2
        },
        {
          "a": 13,
          "b": 2
        },
        {
          "a": 14,
          "b": 2
        },
        {
          "a": 15,
          "b": 2
        }
      ],
      "lesson_2": [
        {
          "a": 12,
          "b": 2
        },
        {
          "a": 13,
          "b": 2
        },
        {
          "a": 14,
          "b": 2
        },
        {
          "a": 15,
          "b": 2
        },
        {
          "a": 16,
          "b": 2
        }
      ],
      "lesson_3": [
        {
          "a": 13,
          "b": 2
        },
        {
          "a": 14,
          "b": 2
        },
        {
          "a": 15,
          "b": 2
        },
        {
          "a": 16,
          "b": 2
        },
        {
          "a": 17,
          "b": 2
        }
      ],
      "lesson_4": [
        {
          "a": 14,
          "b": 2
        },
        {
          "a": 15,
          "b": 2
        },
        {
          "a": 16,
          "b": 2
        },
        {
          "a": 17,
          "b": 2
        },
        {
          "a": 18,
          "b": 2
        }
      ],
      "lesson_5": [
        {
          "a": 15,
          "b": 2
        },
        {
          "a": 16,
          "b": 2
        },
        {
          "a": 17,
          "b": 2
        },
        {
          "a": 18,
          "b": 2
        },
        {
          "a": 19,
          "b": 2
        }
      ],
      "lesson_6": [
        {
          "a": 16,
          "b": 2
        },
        {
          "a": 17,
          "b": 2
        },
        {
          "a": 18,
          "b": 2
        },
        {
          "a": 19,
          "b": 2
        },
        {
          "a": 20,
          "b": 2
        }
      ]
    },
    "chapter_5": {
      "lesson_1": [
        {
          "a": 1,
          "b": 3
        },
        {
          "a": 2,
          "b": 3
        },
        {
          "a": 3,
          "b": 3
        },
        {
          "a": 4,
          "b": 3
        },
        {
          "a": 5,
          "b": 3
        }
      ],
      "lesson_2": [
        {
          "a": 2,
          "b": 3
        },
        {
          "a": 3,
          "b": 3
        },
        {
          "a": 4,
          "b": 3
        },
        {
          "a": 5,
          "b": 3
        },
        {
          "a": 6,
          "b": 3
        }
      ],
      "lesson_3": [
        {
          "a": 3,
          "b": 3
        },
        {
          "a": 4,
          "b": 3
        },
        {
          "a": 5,
          "b": 3
        },
        {
          "a": 6,
          "b": 3
        },
        {
          "a": 7,
          "b": 3
        }
      ],
      "lesson_4": [
        {
          "a": 4,
          "b": 3
        },
        {
          "a": 5,
          "b": 3
        },
        {
          "a": 6,
          "b": 3
        },
        {
          "a": 7,
          "b": 3
        },
        {
          "a": 8,
          "b": 3
        }
      ],
      "lesson_5": [
        {
          "a": 5,
          "b": 3
        },
        {
          "a": 6,
          "b": 3
        },
        {
          "a": 7,
          "b": 3
        },
        {
          "a": 8,
          "b": 3
        },
        {
          "a": 9,
          "b": 3
        }
      ],
      "lesson_6": [
        {
          "a": 6,
          "b": 3
        },
        {
          "a": 7,
          "b": 3
        },
        {
          "a": 8,
          "b": 3
        },
        {
          "a": 9,
          "b": 3
        },
        {
          "a": 10,
          "b": 3
        }
      ]
    },
    "chapter_6": {
      "lesson_1": [
        {
          "a": 11,
          "b": 3
        },
        {
          "a": 12,
          "b": 3
        },
        {
          "a": 13,
          "b": 3
        },
        {
          "a": 14,
          "b": 3
        },
        {
          "a": 15,
          "b": 3
        }
      ],
      "lesson_2": [
        {
          "a": 12,
          "b": 3
        },
        {
          "a": 13,
          "b": 3
        },
        {
          "a": 14,
          "b": 3
        },
        {
          "a": 15,
          "b": 3
        },
        {
          "a": 16,
          "b": 3
        }
      ],
      "lesson_3": [
        {
          "a": 13,
          "b": 3
        },
        {
          "a": 14,
          "b": 3
        },
        {
          "a": 15,
          "b": 3
        },
        {
          "a": 16,
          "b": 3
        },
        {
          "a": 17,
          "b": 3
        }
      ],
      "lesson_4": [
        {
          "a": 14,
          "b": 3
        },
        {
          "a": 15,
          "b": 3
        },
        {
          "a": 16,
          "b": 3
        },
        {
          "a": 17,
          "b": 3
        },
        {
          "a": 18,
          "b": 3
        }
      ],
      "lesson_5": [
        {
          "a": 15,
          "b": 3
        },
        {
          "a": 16,
          "b": 3
        },
        {
          "a": 17,
          "b": 3
        },
        {
          "a": 18,
          "b": 3
        },
        {
          "a": 19,
          "b": 3
        }
      ],
      "lesson_6": [
        {
          "a": 16,
          "b": 3
        },
        {
          "a": 17,
          "b": 3
        },
        {
          "a": 18,
          "b": 3
        },
        {
          "a": 19,
          "b": 3
        },
        {
          "a": 20,
          "b": 3
        }
      ]
    },
    "chapter_7": {
      "lesson_1": {
        "a_random_1": 1,
        "a_random_2": 10,
        "b_random_1": 1,
        "b_random_2": 3
      },
      "lesson_2": {
        "a_random_1": 3,
        "a_random_2": 13,
        "b_random_1": 1,
        "b_random_2": 3
      },
      "lesson_3": {
        "a_random_1": 6,
        "a_random_2": 16,
        "b_random_1": 1,
        "b_random_2": 3
      },
      "lesson_4": {
        "a_random_1": 9,
        "a_random_2": 19,
        "b_random_1": 1,
        "b_random_2": 3
      },
      "lesson_5": {
        "a_random_1": 12,
        "a_random_2": 22,
        "b_random_1": 1,
        "b_random_2": 3
      },
      "lesson_6": {
        "a_random_1": 15,
        "a_random_2": 25,
        "b_random_1": 1,
        "b_random_2": 3
      }
    },
    "chapter_8": {
      "lesson_1": {
        "a_random_1": 1,
        "a_random_2": 10,
        "b": 4
      },
      "lesson_2": {
        "a_random_1": 3,
        "a_random_2": 13,
        "b": 4
      },
      "lesson_3": {
        "a_random_1": 6,
        "a_random_2": 16,
        "b": 4
      },
      "lesson_4": {
        "a_random_1": 9,
        "a_random_2": 19,
        "b": 4
      },
      "lesson_5": {
        "addend_1_random_1": 12,
        "addend_1_random_2": 22,
        "b": 4
      },
      "lesson_6": {
        "addend_1_random_1": 15,
        "addend_1_random_2": 25,
        "b": 4
      }
    },
    "chapter_9": {
      "lesson_1": {
        "addend_1_random_1": 1,
        "addend_1_random_2": 10,
        "b": 5
      },
      "lesson_2": {
        "addend_1_random_1": 3,
        "addend_1_random_2": 13,
        "b": 5
      },
      "lesson_3": {
        "addend_1_random_1": 6,
        "addend_1_random_2": 16,
        "b": 5
      },
      "lesson_4": {
        "addend_1_random_1": 9,
        "addend_1_random_2": 19,
        "b": 5
      },
      "lesson_5": {
        "addend_1_random_1": 12,
        "addend_1_random_2": 22,
        "b": 5
      },
      "lesson_6": {
        "addend_1_random_1": 15,
        "addend_1_random_2": 25,
        "b": 5
      }
    },
    "chapter_10": {
      "a_random_1": 1,
      "a_random_2": 100,
      "b_random_1": 1,
      "b_random_2": 5
    }
  }
}